[
    {
        "id": 1,
        "firstName": "Jordane",
        "lastName": "Walker",
        "email": "Jordane.Walker@gmail.com",
        "birthday": "2005-10-28T21:26:53.0193606+00:00",
        "registeredAt": "2020-06-24T09:11:10.5691173+00:00",
        "city": "New York",
        "teamId": 4
    },
    {
        "id": 2,
        "firstName": "Kolby",
        "lastName": "Jones",
        "email": "Kolby_Jones@yahoo.com",
        "birthday": "2012-01-23T10:37:51.9412291+00:00",
        "registeredAt": "2020-06-27T20:20:55.7940233+00:00",
        "city": "New York",
        "teamId": 5
    },
    {
        "id": 3,
        "firstName": "Mabelle",
        "lastName": "Miller",
        "email": "Mabelle.Miller12@hotmail.com",
        "birthday": "2015-09-29T15:28:43.7369629+00:00",
        "registeredAt": "2020-06-22T12:35:42.5834106+00:00",
        "city": "New York",
        "teamId": null
    },
    {
        "id": 4,
        "firstName": "Verla",
        "lastName": "Bechtelar",
        "email": "Verla.Bechtelar62@gmail.com",
        "birthday": "2008-07-14T20:47:23.7087566+00:00",
        "registeredAt": "2020-07-01T05:22:15.869556+00:00",
        "city": "New York",
        "teamId": null
    },
    {
        "id": 5,
        "firstName": "Retha",
        "lastName": "Will",
        "email": "Retha67@yahoo.com",
        "birthday": "2007-09-20T10:05:41.1527935+00:00",
        "registeredAt": "2020-06-23T18:09:18.5038054+00:00",
        "city": "New York",
        "teamId": 1
    },
    {
        "id": 6,
        "firstName": "Roberto",
        "lastName": "Ruecker",
        "email": "Roberto.Ruecker35@yahoo.com",
        "birthday": "2007-02-26T23:18:31.1405084+00:00",
        "registeredAt": "2020-06-01T23:17:26.4309832+00:00",
        "city": "New York",
        "teamId": 2
    },
    {
        "id": 7,
        "firstName": "Tracy",
        "lastName": "Schinner",
        "email": "Tracy.Schinner65@gmail.com",
        "birthday": "2012-07-08T12:00:24.3757499+00:00",
        "registeredAt": "2020-06-23T14:37:38.0498331+00:00",
        "city": "New York",
        "teamId": 5
    },
    {
        "id": 8,
        "firstName": "Norma",
        "lastName": "Gislason",
        "email": "Norma_Gislason@yahoo.com",
        "birthday": "2003-04-10T20:50:03.5493682+00:00",
        "registeredAt": "2020-05-28T17:02:02.295508+00:00",
        "city": "New York",
        "teamId": null
    },
    {
        "id": 9,
        "firstName": "Luisa",
        "lastName": "Lind",
        "email": "Luisa92@yahoo.com",
        "birthday": "2019-06-10T02:27:47.4844129+00:00",
        "registeredAt": "2020-06-22T19:42:43.764246+00:00",
        "city": "New York",
        "teamId": 8
    },
    {
        "id": 10,
        "firstName": "Edward",
        "lastName": "Kuvalis",
        "email": "Edward_Kuvalis@yahoo.com",
        "birthday": "2008-01-01T09:16:36.4548263+00:00",
        "registeredAt": "2020-06-02T23:16:31.267727+00:00",
        "city": "New York",
        "teamId": 4
    },
    {
        "id": 11,
        "firstName": "Jayde",
        "lastName": "Pouros",
        "email": "Jayde22@hotmail.com",
        "birthday": "2012-09-18T12:52:12.4424499+00:00",
        "registeredAt": "2020-06-29T13:40:13.993952+00:00",
        "city": "San Francisco",
        "teamId": null
    },
    {
        "id": 12,
        "firstName": "Sherman",
        "lastName": "Kuhlman",
        "email": "Sherman_Kuhlman44@hotmail.com",
        "birthday": "2003-01-30T17:45:04.7477993+00:00",
        "registeredAt": "2020-06-11T22:12:48.7118931+00:00",
        "city": "San Francisco",
        "teamId": 4
    },
    {
        "id": 13,
        "firstName": "Issac",
        "lastName": "Rath",
        "email": "Issac.Rath@gmail.com",
        "birthday": "2020-04-01T05:47:34.5794826+00:00",
        "registeredAt": "2020-06-18T07:48:28.9542609+00:00",
        "city": "San Francisco",
        "teamId": 8
    },
    {
        "id": 14,
        "firstName": "Kirsten",
        "lastName": "Braun",
        "email": "Kirsten_Braun49@gmail.com",
        "birthday": "2019-03-31T07:06:27.880072+00:00",
        "registeredAt": "2020-06-03T14:20:09.6735222+00:00",
        "city": "San Francisco",
        "teamId": null
    },
    {
        "id": 15,
        "firstName": "Tamara",
        "lastName": "Brakus",
        "email": "Tamara58@gmail.com",
        "birthday": "2016-09-05T15:10:36.5090538+00:00",
        "registeredAt": "2020-06-08T13:04:31.6144169+00:00",
        "city": "San Francisco",
        "teamId": null
    },
    {
        "id": 16,
        "firstName": "Hilton",
        "lastName": "Kemmer",
        "email": "Hilton.Kemmer84@gmail.com",
        "birthday": "2010-11-19T21:50:45.8587891+00:00",
        "registeredAt": "2020-07-01T07:00:16.6860452+00:00",
        "city": "San Francisco",
        "teamId": 1
    },
    {
        "id": 17,
        "firstName": "Delmer",
        "lastName": "Wunsch",
        "email": "Delmer9@gmail.com",
        "birthday": "2008-04-10T13:16:49.9926847+00:00",
        "registeredAt": "2020-05-27T21:57:23.5397637+00:00",
        "city": "San Francisco",
        "teamId": 2
    },
    {
        "id": 18,
        "firstName": "Lupe",
        "lastName": "Harber",
        "email": "Lupe91@gmail.com",
        "birthday": "2002-07-26T20:27:55.9827619+00:00",
        "registeredAt": "2020-05-22T17:21:56.0998576+00:00",
        "city": "San Francisco",
        "teamId": null
    },
    {
        "id": 19,
        "firstName": "Cedrick",
        "lastName": "Lemke",
        "email": "Cedrick33@hotmail.com",
        "birthday": "2004-11-26T06:18:16.7968598+00:00",
        "registeredAt": "2020-05-22T04:53:58.617495+00:00",
        "city": "San Francisco",
        "teamId": null
    },
    {
        "id": 20,
        "firstName": "Zane",
        "lastName": "Will",
        "email": "Zane.Will@yahoo.com",
        "birthday": "2016-10-17T11:55:25.834367+00:00",
        "registeredAt": "2020-06-05T11:13:47.4415614+00:00",
        "city": "San Francisco",
        "teamId": null
    },
    {
        "id": 21,
        "firstName": "Shane",
        "lastName": "Windler",
        "email": "Shane67@gmail.com",
        "birthday": "2010-12-24T11:56:04.3738155+00:00",
        "registeredAt": "2020-06-13T20:22:28.4865957+00:00",
        "city": "Chicago",
        "teamId": null
    },
    {
        "id": 22,
        "firstName": "Verdie",
        "lastName": "Gutmann",
        "email": "Verdie.Gutmann46@hotmail.com",
        "birthday": "2011-04-09T14:21:10.3784269+00:00",
        "registeredAt": "2020-06-21T15:57:15.5372226+00:00",
        "city": "Chicago",
        "teamId": 5
    },
    {
        "id": 23,
        "firstName": "Abe",
        "lastName": "Dooley",
        "email": "Abe_Dooley66@gmail.com",
        "birthday": "2013-08-17T07:11:04.5692094+00:00",
        "registeredAt": "2020-06-21T22:43:12.7386212+00:00",
        "city": "Chicago",
        "teamId": 5
    },
    {
        "id": 24,
        "firstName": "Bud",
        "lastName": "Collins",
        "email": "Bud.Collins@gmail.com",
        "birthday": "2012-07-27T06:17:48.5411681+00:00",
        "registeredAt": "2020-06-09T18:35:51.8445877+00:00",
        "city": "Chicago",
        "teamId": 1
    },
    {
        "id": 25,
        "firstName": "Columbus",
        "lastName": "Will",
        "email": "Columbus.Will64@hotmail.com",
        "birthday": "2007-08-23T11:25:19.8090383+00:00",
        "registeredAt": "2020-06-17T00:38:36.7481173+00:00",
        "city": "Chicago",
        "teamId": 5
    },
    {
        "id": 26,
        "firstName": "Alfred",
        "lastName": "Ward",
        "email": "Alfred_Ward44@yahoo.com",
        "birthday": "2017-11-23T10:03:44.1751693+00:00",
        "registeredAt": "2020-06-16T12:02:16.5611785+00:00",
        "city": "Chicago",
        "teamId": 4
    },
    {
        "id": 27,
        "firstName": "Ada",
        "lastName": "West",
        "email": "Ada29@hotmail.com",
        "birthday": "2004-12-25T01:40:31.7580383+00:00",
        "registeredAt": "2020-06-12T19:59:15.8381128+00:00",
        "city": "Chicago",
        "teamId": 7
    },
    {
        "id": 28,
        "firstName": "Germaine",
        "lastName": "Parker",
        "email": "Germaine_Parker@gmail.com",
        "birthday": "2011-07-20T20:04:44.5759068+00:00",
        "registeredAt": "2020-06-07T07:40:25.1336725+00:00",
        "city": "Chicago",
        "teamId": null
    },
    {
        "id": 29,
        "firstName": "Dianna",
        "lastName": "Lynch",
        "email": "Dianna_Lynch@hotmail.com",
        "birthday": "2010-06-20T03:28:17.6517332+00:00",
        "registeredAt": "2020-06-22T03:11:14.5553721+00:00",
        "city": "Chicago",
        "teamId": null
    },
    {
        "id": 30,
        "firstName": "Hulda",
        "lastName": "Murray",
        "email": "Hulda.Murray61@yahoo.com",
        "birthday": "2008-01-27T05:46:06.4542093+00:00",
        "registeredAt": "2020-06-26T11:35:49.2600625+00:00",
        "city": "Chicago",
        "teamId": 10
    },
    {
        "id": 31,
        "firstName": "Beatrice",
        "lastName": "Kerluke",
        "email": "Beatrice.Kerluke@gmail.com",
        "birthday": "2008-08-02T03:28:43.1611271+00:00",
        "registeredAt": "2020-06-23T22:02:32.0102632+00:00",
        "city": "Washington",
        "teamId": null
    },
    {
        "id": 32,
        "firstName": "Rex",
        "lastName": "Gerhold",
        "email": "Rex90@gmail.com",
        "birthday": "2016-12-22T10:41:35.7447518+00:00",
        "registeredAt": "2020-05-28T23:02:01.1048139+00:00",
        "city": "Washington",
        "teamId": 5
    },
    {
        "id": 33,
        "firstName": "Edgar",
        "lastName": "Gislason",
        "email": "Edgar_Gislason@hotmail.com",
        "birthday": "2009-03-07T11:16:31.7677527+00:00",
        "registeredAt": "2020-06-16T23:08:50.8227785+00:00",
        "city": "Washington",
        "teamId": 5
    },
    {
        "id": 34,
        "firstName": "Monserrat",
        "lastName": "Okuneva",
        "email": "Monserrat_Okuneva@yahoo.com",
        "birthday": "2019-01-16T20:02:15.2682177+00:00",
        "registeredAt": "2020-05-20T22:32:22.6670028+00:00",
        "city": "Washington",
        "teamId": 8
    },
    {
        "id": 35,
        "firstName": "Gabrielle",
        "lastName": "Hane",
        "email": "Gabrielle69@hotmail.com",
        "birthday": "2020-04-11T02:37:42.5183362+00:00",
        "registeredAt": "2020-05-25T00:12:46.6373168+00:00",
        "city": "Washington",
        "teamId": 2
    },
    {
        "id": 36,
        "firstName": "Pedro",
        "lastName": "Gleason",
        "email": "Pedro56@hotmail.com",
        "birthday": "2018-07-24T16:10:18.4345195+00:00",
        "registeredAt": "2020-06-13T06:50:19.5179342+00:00",
        "city": "Washington",
        "teamId": null
    },
    {
        "id": 37,
        "firstName": "Alan",
        "lastName": "Bergnaum",
        "email": "Alan_Bergnaum@gmail.com",
        "birthday": "2011-08-19T00:38:48.4703814+00:00",
        "registeredAt": "2020-06-11T16:20:36.9918256+00:00",
        "city": "Washington",
        "teamId": 2
    },
    {
        "id": 38,
        "firstName": "Winston",
        "lastName": "Rutherford",
        "email": "Winston_Rutherford@hotmail.com",
        "birthday": "2011-10-31T16:40:07.6875966+00:00",
        "registeredAt": "2020-05-31T07:55:57.6050218+00:00",
        "city": "Washington",
        "teamId": 5
    },
    {
        "id": 39,
        "firstName": "Jed",
        "lastName": "Batz",
        "email": "Jed.Batz@hotmail.com",
        "birthday": "2013-11-10T06:35:50.156348+00:00",
        "registeredAt": "2020-06-20T03:11:11.9245305+00:00",
        "city": "Washington",
        "teamId": 2
    },
    {
        "id": 40,
        "firstName": "Bernadine",
        "lastName": "Zemlak",
        "email": "Bernadine_Zemlak14@hotmail.com",
        "birthday": "2006-06-03T08:58:29.3213232+00:00",
        "registeredAt": "2020-06-26T12:13:46.9100765+00:00",
        "city": "Washington",
        "teamId": 7
    },
    {
        "id": 41,
        "firstName": "Dangelo",
        "lastName": "Howell",
        "email": "Dangelo41@hotmail.com",
        "birthday": "2017-01-31T15:11:32.748917+00:00",
        "registeredAt": "2020-06-25T16:11:58.8758216+00:00",
        "city": "Los Angeles",
        "teamId": null
    },
    {
        "id": 42,
        "firstName": "Dewitt",
        "lastName": "Blick",
        "email": "Dewitt70@hotmail.com",
        "birthday": "2004-05-20T11:52:10.0460727+00:00",
        "registeredAt": "2020-05-28T02:19:58.3211503+00:00",
        "city": "Los Angeles",
        "teamId": 4
    },
    {
        "id": 43,
        "firstName": "Carolina",
        "lastName": "Schulist",
        "email": "Carolina_Schulist@yahoo.com",
        "birthday": "2002-11-25T14:28:14.6361691+00:00",
        "registeredAt": "2020-05-22T10:11:03.0933909+00:00",
        "city": "Los Angeles",
        "teamId": 7
    },
    {
        "id": 44,
        "firstName": "Raegan",
        "lastName": "Flatley",
        "email": "Raegan_Flatley75@hotmail.com",
        "birthday": "2005-06-04T16:14:28.8720146+00:00",
        "registeredAt": "2020-06-22T11:59:33.6871371+00:00",
        "city": "Los Angeles",
        "teamId": 10
    },
    {
        "id": 45,
        "firstName": "Ernest",
        "lastName": "Ryan",
        "email": "Ernest_Ryan6@gmail.com",
        "birthday": "2005-03-13T23:15:55.3150845+00:00",
        "registeredAt": "2020-06-13T08:07:49.1606262+00:00",
        "city": "Los Angeles",
        "teamId": null
    },
    {
        "id": 46,
        "firstName": "Cleve",
        "lastName": "Greenholt",
        "email": "Cleve40@gmail.com",
        "birthday": "2018-09-29T10:12:37.8560083+00:00",
        "registeredAt": "2020-05-26T19:39:37.5032854+00:00",
        "city": "Los Angeles",
        "teamId": 4
    },
    {
        "id": 47,
        "firstName": "Kelsie",
        "lastName": "Harvey",
        "email": "Kelsie16@gmail.com",
        "birthday": "2016-01-14T08:30:08.8231018+00:00",
        "registeredAt": "2020-06-01T10:32:48.5838304+00:00",
        "city": "Los Angeles",
        "teamId": 8
    },
    {
        "id": 48,
        "firstName": "Clemens",
        "lastName": "Dare",
        "email": "Clemens63@yahoo.com",
        "birthday": "2011-04-16T02:06:48.6269115+00:00",
        "registeredAt": "2020-05-23T14:21:58.2044981+00:00",
        "city": "Los Angeles",
        "teamId": null
    },
    {
        "id": 49,
        "firstName": "Vernie",
        "lastName": "Hodkiewicz",
        "email": "Vernie5@gmail.com",
        "birthday": "2013-01-02T11:11:28.888461+00:00",
        "registeredAt": "2020-06-03T04:13:47.0361354+00:00",
        "city": "Los Angeles",
        "teamId": 8
    },
    {
        "id": 50,
        "firstName": "Jermain",
        "lastName": "Leffler",
        "email": "Jermain_Leffler@hotmail.com",
        "birthday": "2007-09-27T00:55:50.6308712+00:00",
        "registeredAt": "2020-06-01T16:41:43.9018228+00:00",
        "city": "Los Angeles",
        "teamId": null
    }
]
